TSD.knit
…
Time series components

us_employment

## # A tsibble: 143,412 x 4 [1M]
## # Key:       Series_ID [148]
##       Month Series_ID     Title         Employed
##       <mth> <chr>         <chr>            <dbl>
##  1 1939 Jan CEU0500000001 Total Private    25338
##  2 1939 Feb CEU0500000001 Total Private    25447
##  3 1939 Mar CEU0500000001 Total Private    25833
##  4 1939 Apr CEU0500000001 Total Private    25801
##  5 1939 May CEU0500000001 Total Private    26113
##  6 1939 Jun CEU0500000001 Total Private    26485
##  7 1939 Jul CEU0500000001 Total Private    26481
##  8 1939 Aug CEU0500000001 Total Private    26848
##  9 1939 Sep CEU0500000001 Total Private    27468
## 10 1939 Oct CEU0500000001 Total Private    27830
## # ... with 143,402 more rows
…
dcmp <- us_retail_employment %>%
  model(stl = STL(Employed))
components(dcmp)

## # A dable: 357 x 7 [1M]
## # Key:     .model [1]
## # :        Employed = trend + season_year + remainder
##    .model    Month Employed  trend season_year remainder season_adjust
##    <chr>     <mth>    <dbl>  <dbl>       <dbl>     <dbl>         <dbl>
##  1 stl    1990 Jan   13256. 13288.      -33.0      0.836        13289.
##  2 stl    1990 Feb   12966. 13269.     -258.     -44.6          13224.
##  3 stl    1990 Mar   12938. 13250.     -290.     -22.1          13228.
##  4 stl    1990 Apr   13012. 13231.     -220.       1.05         13232.
##  5 stl    1990 May   13108. 13211.     -114.      11.3          13223.
##  6 stl    1990 Jun   13183. 13192.      -24.3     15.5          13207.
##  7 stl    1990 Jul   13170. 13172.      -23.2     21.6          13193.
##  8 stl    1990 Aug   13160. 13151.       -9.52    17.8          13169.
##  9 stl    1990 Sep   13113. 13131.      -39.5     22.0          13153.
## 10 stl    1990 Oct   13185. 13110.       61.6     13.2          13124.
## # ... with 347 more rows
…
Moving averages

global_economy

## # A tsibble: 15,150 x 9 [1Y]
## # Key:       Country [263]
##    Country     Code   Year         GDP Growth   CPI Imports Exports Population
##    <fct>       <fct> <dbl>       <dbl>  <dbl> <dbl>   <dbl>   <dbl>      <dbl>
##  1 Afghanistan AFG    1960  537777811.     NA    NA    7.02    4.13    8996351
##  2 Afghanistan AFG    1961  548888896.     NA    NA    8.10    4.45    9166764
##  3 Afghanistan AFG    1962  546666678.     NA    NA    9.35    4.88    9345868
##  4 Afghanistan AFG    1963  751111191.     NA    NA   16.9     9.17    9533954
##  5 Afghanistan AFG    1964  800000044.     NA    NA   18.1     8.89    9731361
##  6 Afghanistan AFG    1965 1006666638.     NA    NA   21.4    11.3     9938414
##  7 Afghanistan AFG    1966 1399999967.     NA    NA   18.6     8.57   10152331
##  8 Afghanistan AFG    1967 1673333418.     NA    NA   14.2     6.77   10372630
##  9 Afghanistan AFG    1968 1373333367.     NA    NA   15.2     8.90   10604346
## 10 Afghanistan AFG    1969 1408888922.     NA    NA   15.0    10.1    10854428
## # ... with 15,140 more rows
…
