TSD.knit
…
Time series decomposition

Some simple statistics

tourism %>%
  features(Trips, list(mean = mean)) %>%
  arrange(mean)

## # A tibble: 304 x 4
##    Region          State              Purpose   mean
##    <chr>           <chr>              <chr>    <dbl>
##  1 Kangaroo Island South Australia    Other    0.340
##  2 MacDonnell      Northern Territory Other    0.449
##  3 Wilderness West Tasmania           Other    0.478
##  4 Barkly          Northern Territory Other    0.632
##  5 Clare Valley    South Australia    Other    0.898
##  6 Barossa         South Australia    Other    1.02 
##  7 Kakadu Arnhem   Northern Territory Other    1.04 
##  8 Lasseter        Northern Territory Other    1.14 
##  9 Wimmera         Victoria           Other    1.15 
## 10 MacDonnell      Northern Territory Visiting 1.18 
## # ... with 294 more rows

Is this just a way to do summarise()? Plus, it returns a tibble, not a tsibble. (Understandable, since we dont have a time component anymore)

tourism %>%
  group_by(Region, State, Purpose) %>%
  summarise(Trips = mean(Trips)) %>%
  arrange(Trips)

## Warning: Current temporal ordering may yield unexpected results.
## i Suggest to sort by `Region`, `State`, `Purpose`, `Quarter` first.

## # A tsibble: 24,320 x 5 [1Q]
## # Key:       Region, State, Purpose [304]
## # Groups:    Region, State [76]
##    Region         State           Purpose  Quarter Trips
##    <chr>          <chr>           <chr>      <qtr> <dbl>
##  1 Adelaide Hills South Australia Business 1998 Q1     0
##  2 Adelaide Hills South Australia Business 1998 Q2     0
##  3 Adelaide Hills South Australia Business 1998 Q4     0
##  4 Adelaide Hills South Australia Business 1999 Q3     0
##  5 Adelaide Hills South Australia Business 1999 Q4     0
##  6 Adelaide Hills South Australia Business 2000 Q1     0
##  7 Adelaide Hills South Australia Business 2001 Q1     0
##  8 Adelaide Hills South Australia Business 2002 Q1     0
##  9 Adelaide Hills South Australia Business 2002 Q3     0
## 10 Adelaide Hills South Australia Business 2002 Q4     0
## # ... with 24,310 more rows

Yeah, does not work.

tourism %>%
  as_tibble() %>%
  group_by(Region, State, Purpose) %>%
  summarise(Trips = mean(Trips)) %>%
  arrange(Trips)

## `summarise()` has grouped output by 'Region', 'State'. You can override using the `.groups` argument.

## # A tibble: 304 x 4
## # Groups:   Region, State [76]
##    Region          State              Purpose  Trips
##    <chr>           <chr>              <chr>    <dbl>
##  1 Kangaroo Island South Australia    Other    0.340
##  2 MacDonnell      Northern Territory Other    0.449
##  3 Wilderness West Tasmania           Other    0.478
##  4 Barkly          Northern Territory Other    0.632
##  5 Clare Valley    South Australia    Other    0.898
##  6 Barossa         South Australia    Other    1.02 
##  7 Kakadu Arnhem   Northern Territory Other    1.04 
##  8 Lasseter        Northern Territory Other    1.14 
##  9 Wimmera         Victoria           Other    1.15 
## 10 MacDonnell      Northern Territory Visiting 1.18 
## # ... with 294 more rows

Better.

tourism %>% features(Trips, list(
  mean = mean,
  quantile = quantile
  )
)

## # A tibble: 304 x 9
##    Region         State Purpose   mean `quantile_0%` `quantile_25%` `quantile_50%`
##    <chr>          <chr> <chr>    <dbl>         <dbl>          <dbl>          <dbl>
##  1 Adelaide       Sout~ Busine~ 156.          68.7           134.          153.   
##  2 Adelaide       Sout~ Holiday 157.         108.            135.          154.   
##  3 Adelaide       Sout~ Other    56.6         25.9            43.9          53.8  
##  4 Adelaide       Sout~ Visiti~ 205.         137.            179.          206.   
##  5 Adelaide Hills Sout~ Busine~   2.66         0               0             1.26 
##  6 Adelaide Hills Sout~ Holiday  10.5          0               5.77          8.52 
##  7 Adelaide Hills Sout~ Other     1.40         0               0             0.908
##  8 Adelaide Hills Sout~ Visiti~  14.2          0.778           8.91         12.2  
##  9 Alice Springs  Nort~ Busine~  14.6          1.01            9.13         13.3  
## 10 Alice Springs  Nort~ Holiday  31.9          2.81           16.9          31.5  
## # ... with 294 more rows, and 2 more variables: quantile_75% <dbl>,
## #   quantile_100% <dbl>

ACF Features

tourism %>% features(Trips, feat_acf)

## # A tibble: 304 x 10
##    Region         State Purpose     acf1 acf10 diff1_acf1 diff1_acf10 diff2_acf1
##    <chr>          <chr> <chr>      <dbl> <dbl>      <dbl>       <dbl>      <dbl>
##  1 Adelaide       Sout~ Busine~  0.0333  0.131     -0.520       0.463     -0.676
##  2 Adelaide       Sout~ Holiday  0.0456  0.372     -0.343       0.614     -0.487
##  3 Adelaide       Sout~ Other    0.517   1.15      -0.409       0.383     -0.675
##  4 Adelaide       Sout~ Visiti~  0.0684  0.294     -0.394       0.452     -0.518
##  5 Adelaide Hills Sout~ Busine~  0.0709  0.134     -0.580       0.415     -0.750
##  6 Adelaide Hills Sout~ Holiday  0.131   0.313     -0.536       0.500     -0.716
##  7 Adelaide Hills Sout~ Other    0.261   0.330     -0.253       0.317     -0.457
##  8 Adelaide Hills Sout~ Visiti~  0.139   0.117     -0.472       0.239     -0.626
##  9 Alice Springs  Nort~ Busine~  0.217   0.367     -0.500       0.381     -0.658
## 10 Alice Springs  Nort~ Holiday -0.00660 2.11      -0.153       2.11      -0.274
## # ... with 294 more rows, and 2 more variables: diff2_acf10 <dbl>,
## #   season_acf1 <dbl>
…
Doesnt seem really necessary to do some differencing.

STL Features

tourism %>%
  features(Trips, feat_stl)

## # A tibble: 304 x 12
##    Region         State Purpose trend_strength seasonal_streng~ seasonal_peak_y~
##    <chr>          <chr> <chr>            <dbl>            <dbl>            <dbl>
##  1 Adelaide       Sout~ Busine~          0.464            0.407                3
##  2 Adelaide       Sout~ Holiday          0.554            0.619                1
##  3 Adelaide       Sout~ Other            0.746            0.202                2
##  4 Adelaide       Sout~ Visiti~          0.435            0.452                1
##  5 Adelaide Hills Sout~ Busine~          0.464            0.179                3
##  6 Adelaide Hills Sout~ Holiday          0.528            0.296                2
##  7 Adelaide Hills Sout~ Other            0.593            0.404                2
##  8 Adelaide Hills Sout~ Visiti~          0.488            0.254                0
##  9 Alice Springs  Nort~ Busine~          0.534            0.251                0
## 10 Alice Springs  Nort~ Holiday          0.381            0.832                3
## # ... with 294 more rows, and 6 more variables: seasonal_trough_year <dbl>,
## #   spikiness <dbl>, linearity <dbl>, curvature <dbl>, stl_e_acf1 <dbl>,
## #   stl_e_acf10 <dbl>
…
Exploring Australian tourism data

tourism_features <- tourism %>%
  features(Trips, feature_set(pkgs = "feasts"))

## Warning: `n_flat_spots()` was deprecated in feasts 0.1.5.
## Please use `longest_flat_spot()` instead.

tourism_features

## # A tibble: 304 x 51
##    Region         State Purpose trend_strength seasonal_streng~ seasonal_peak_y~
##    <chr>          <chr> <chr>            <dbl>            <dbl>            <dbl>
##  1 Adelaide       Sout~ Busine~          0.464            0.407                3
##  2 Adelaide       Sout~ Holiday          0.554            0.619                1
##  3 Adelaide       Sout~ Other            0.746            0.202                2
##  4 Adelaide       Sout~ Visiti~          0.435            0.452                1
##  5 Adelaide Hills Sout~ Busine~          0.464            0.179                3
##  6 Adelaide Hills Sout~ Holiday          0.528            0.296                2
##  7 Adelaide Hills Sout~ Other            0.593            0.404                2
##  8 Adelaide Hills Sout~ Visiti~          0.488            0.254                0
##  9 Alice Springs  Nort~ Busine~          0.534            0.251                0
## 10 Alice Springs  Nort~ Holiday          0.381            0.832                3
## # ... with 294 more rows, and 45 more variables: seasonal_trough_year <dbl>,
## #   spikiness <dbl>, linearity <dbl>, curvature <dbl>, stl_e_acf1 <dbl>,
## #   stl_e_acf10 <dbl>, acf1 <dbl>, acf10 <dbl>, diff1_acf1 <dbl>,
## #   diff1_acf10 <dbl>, diff2_acf1 <dbl>, diff2_acf10 <dbl>, season_acf1 <dbl>,
## #   pacf5 <dbl>, diff1_pacf5 <dbl>, diff2_pacf5 <dbl>, season_pacf <dbl>,
## #   zero_run_mean <dbl>, nonzero_squared_cv <dbl>, zero_start_prop <dbl>,
## #   zero_end_prop <dbl>, lambda_guerrero <dbl>, kpss_stat <dbl>, ...
…
pcs <- tourism_features %>%
  select(-State, -Region, -Purpose) %>%
  prcomp(scale = TRUE)

# Eigenvalue
pcs$sdev^2 %>% as_tibble() %>% rename(Eigenvalues = value)

## # A tibble: 48 x 1
##    Eigenvalues
##          <dbl>
##  1       11.8 
##  2        9.81
##  3        3.43
##  4        2.71
##  5        2.34
##  6        1.87
##  7        1.66
##  8        1.39
##  9        1.29
## 10        1.10
## # ... with 38 more rows

# Explained variance
pcs$sdev^2 %>% as_tibble() %>%
 mutate(value = value / 47) %>%
 rename(Eigenvalues = value)

## # A tibble: 48 x 1
##    Eigenvalues
##          <dbl>
##  1      0.251 
##  2      0.209 
##  3      0.0730
##  4      0.0577
##  5      0.0497
##  6      0.0399
##  7      0.0353
##  8      0.0295
##  9      0.0274
## 10      0.0234
## # ... with 38 more rows
…
# Eigenvalue
pbs_features_pca$sdev^2 %>% as_tibble() %>% rename(Eigenvalues = value)

## # A tibble: 44 x 1
##    Eigenvalues
##          <dbl>
##  1      12.8  
##  2       7.66 
##  3       3.69 
##  4       3.24 
##  5       2.41 
##  6       1.93 
##  7       1.48 
##  8       1.20 
##  9       1.10 
## 10       0.987
## # ... with 34 more rows

# Explained variance
pbs_features_pca$sdev^2 %>% as_tibble() %>%
 mutate(value = value / 47 * 100) %>%
 rename(`Eigenvalues (%)`= value)

## # A tibble: 44 x 1
##    `Eigenvalues (%)`
##                <dbl>
##  1             27.3 
##  2             16.3 
##  3              7.86
##  4              6.88
##  5              5.12
##  6              4.10
##  7              3.14
##  8              2.55
##  9              2.33
## 10              2.10
## # ... with 34 more rows

# TODO: put that on a graph
pbs_features_pca$rotation %>% as_tibble() %>% select(PC1, PC2)

## # A tibble: 44 x 2
##        PC1      PC2
##      <dbl>    <dbl>
##  1 -0.215   0.168  
##  2  0.0759  0.297  
##  3 -0.0341  0.00667
##  4 -0.0853  0.0348 
##  5 -0.0425  0.00675
##  6  0.108   0.153  
##  7  0.0654  0.172  
##  8 -0.252   0.128  
##  9 -0.254  -0.0490 
## 10  0.0726  0.265  
## # ... with 34 more rows
…
