TFT.knit
…
The forecasters toolbox

A tidy forecasting workflow

gdppc <- global_economy %>%
  mutate(GDP_per_capita = GDP / Population)
gdppc

## # A tsibble: 15,150 x 10 [1Y]
## # Key:       Country [263]
##    Country     Code   Year         GDP Growth   CPI Imports Exports Population
##    <fct>       <fct> <dbl>       <dbl>  <dbl> <dbl>   <dbl>   <dbl>      <dbl>
##  1 Afghanistan AFG    1960  537777811.     NA    NA    7.02    4.13    8996351
##  2 Afghanistan AFG    1961  548888896.     NA    NA    8.10    4.45    9166764
##  3 Afghanistan AFG    1962  546666678.     NA    NA    9.35    4.88    9345868
##  4 Afghanistan AFG    1963  751111191.     NA    NA   16.9     9.17    9533954
##  5 Afghanistan AFG    1964  800000044.     NA    NA   18.1     8.89    9731361
##  6 Afghanistan AFG    1965 1006666638.     NA    NA   21.4    11.3     9938414
##  7 Afghanistan AFG    1966 1399999967.     NA    NA   18.6     8.57   10152331
##  8 Afghanistan AFG    1967 1673333418.     NA    NA   14.2     6.77   10372630
##  9 Afghanistan AFG    1968 1373333367.     NA    NA   15.2     8.90   10604346
## 10 Afghanistan AFG    1969 1408888922.     NA    NA   15.0    10.1    10854428
## # ... with 15,140 more rows, and 1 more variable: GDP_per_capita <dbl>
…
fit <- gdppc %>%
  model(trend_model = TSLM(GDP_per_capita ~ trend()))

## Warning: 7 errors (1 unique) encountered for trend_model
## [7] 0 (non-NA) cases

fit %>% forecast(h = "3 years")

## # A fable: 789 x 5 [1Y]
## # Key:     Country, .model [263]
##    Country        .model       Year   GDP_per_capita  .mean
##    <fct>          <chr>       <dbl>           <dist>  <dbl>
##  1 Afghanistan    trend_model  2018     N(526, 9653)   526.
##  2 Afghanistan    trend_model  2019     N(534, 9689)   534.
##  3 Afghanistan    trend_model  2020     N(542, 9727)   542.
##  4 Albania        trend_model  2018  N(4716, 476419)  4716.
##  5 Albania        trend_model  2019  N(4867, 481086)  4867.
##  6 Albania        trend_model  2020  N(5018, 486012)  5018.
##  7 Algeria        trend_model  2018  N(4410, 643094)  4410.
##  8 Algeria        trend_model  2019  N(4489, 645311)  4489.
##  9 Algeria        trend_model  2020  N(4568, 647602)  4568.
## 10 American Samoa trend_model  2018 N(12491, 652926) 12491.
## # ... with 779 more rows
…
Fitted values and residuals

beer_fit %>% augment()

## # A tsibble: 180 x 6 [1Q]
## # Key:       .model [3]
##    .model Quarter  Beer .fitted .resid .innov
##    <chr>    <qtr> <dbl>   <dbl>  <dbl>  <dbl>
##  1 Mean   1992 Q1   443    436.   6.55   6.55
##  2 Mean   1992 Q2   410    436. -26.4  -26.4 
##  3 Mean   1992 Q3   420    436. -16.4  -16.4 
##  4 Mean   1992 Q4   532    436.  95.6   95.6 
##  5 Mean   1993 Q1   433    436.  -3.45  -3.45
##  6 Mean   1993 Q2   421    436. -15.4  -15.4 
##  7 Mean   1993 Q3   410    436. -26.4  -26.4 
##  8 Mean   1993 Q4   512    436.  75.6   75.6 
##  9 Mean   1994 Q1   449    436.  12.6   12.6 
## 10 Mean   1994 Q2   381    436. -55.4  -55.4 
## # ... with 170 more rows
…
fit <- google_2015 %>%
  model(NAIVE(Close))
sim <- fit %>% generate(h = 30, times = 5, bootstrap = TRUE)
sim

## # A tsibble: 150 x 5 [1]
## # Key:       Symbol, .model, .rep [5]
##    Symbol .model         day .rep   .sim
##    <chr>  <chr>        <dbl> <chr> <dbl>
##  1 GOOG   NAIVE(Close)   253 1      758.
##  2 GOOG   NAIVE(Close)   254 1      757.
##  3 GOOG   NAIVE(Close)   255 1      757.
##  4 GOOG   NAIVE(Close)   256 1      752.
##  5 GOOG   NAIVE(Close)   257 1      761.
##  6 GOOG   NAIVE(Close)   258 1      769.
##  7 GOOG   NAIVE(Close)   259 1      758.
##  8 GOOG   NAIVE(Close)   260 1      771.
##  9 GOOG   NAIVE(Close)   261 1      782.
## 10 GOOG   NAIVE(Close)   262 1      782.
## # ... with 140 more rows
…
fc <- fit %>% forecast(h = 30, bootstrap = TRUE)
fc

## # A fable: 30 x 5 [1]
## # Key:     Symbol, .model [1]
##    Symbol .model         day        Close .mean
##    <chr>  <chr>        <dbl>       <dist> <dbl>
##  1 GOOG   NAIVE(Close)   253 sample[5000]  759.
##  2 GOOG   NAIVE(Close)   254 sample[5000]  759.
##  3 GOOG   NAIVE(Close)   255 sample[5000]  759.
##  4 GOOG   NAIVE(Close)   256 sample[5000]  759.
##  5 GOOG   NAIVE(Close)   257 sample[5000]  759.
##  6 GOOG   NAIVE(Close)   258 sample[5000]  759.
##  7 GOOG   NAIVE(Close)   259 sample[5000]  759.
##  8 GOOG   NAIVE(Close)   260 sample[5000]  759.
##  9 GOOG   NAIVE(Close)   261 sample[5000]  759.
## 10 GOOG   NAIVE(Close)   262 sample[5000]  759.
## # ... with 20 more rows
…
