Code.knit
…
1991 Nov
Concessional
Co-payments
1686458

# Total cost by monthyear
PBS %>%
  filter(ATC2 == "A10") %>%
  select(Month, Concession, Type, Cost) %>%
  summarise(TotalCost = sum(Cost))

## # A tsibble: 204 x 2 [1M]
##       Month TotalCost
##       <mth>     <dbl>
##  1 1991 Jul   3526591
##  2 1991 Aug   3180891
##  3 1991 Sep   3252221
##  4 1991 Oct   3611003
##  5 1991 Nov   3565869
##  6 1991 Dec   4306371
##  7 1992 Jan   5088335
##  8 1992 Feb   2814520
##  9 1992 Mar   2985811
## 10 1992 Apr   3204780
## # ... with 194 more rows

# Total cost by monthyear (M dollars)
PBS %>%
  filter(ATC2 == "A10") %>%
  select(Month, Concession, Type, Cost) %>%
  summarise(TotalCost = sum(Cost)) %>%
  mutate(TotalCost = TotalCost / 1e6) -> a10
a10

## # A tsibble: 204 x 2 [1M]
##       Month TotalCost
##       <mth>     <dbl>
##  1 1991 Jul      3.53
##  2 1991 Aug      3.18
##  3 1991 Sep      3.25
##  4 1991 Oct      3.61
##  5 1991 Nov      3.57
##  6 1991 Dec      4.31
##  7 1992 Jan      5.09
##  8 1992 Feb      2.81
##  9 1992 Mar      2.99
## 10 1992 Apr      3.20
## # ... with 194 more rows
…
## Rows: 3072 Columns: 6

## -- Column specification --------------------------------------------------------
## Delimiter: ","
## chr  (4): State, Gender, Legal, Indigenous
## dbl  (1): Count
## date (1): Date

## 
## i Use `spec()` to retrieve the full column specification for this data.
## i Specify the column types or set `show_col_types = FALSE` to quiet this message.

prison

## # A tibble: 3,072 x 6
##    Date       State Gender Legal     Indigenous Count
##    <date>     <chr> <chr>  <chr>     <chr>      <dbl>
##  1 2005-03-01 ACT   Female Remanded  ATSI           0
##  2 2005-03-01 ACT   Female Remanded  Non-ATSI       2
##  3 2005-03-01 ACT   Female Sentenced ATSI           0
##  4 2005-03-01 ACT   Female Sentenced Non-ATSI       5
##  5 2005-03-01 ACT   Male   Remanded  ATSI           7
##  6 2005-03-01 ACT   Male   Remanded  Non-ATSI      58
##  7 2005-03-01 ACT   Male   Sentenced ATSI           5
##  8 2005-03-01 ACT   Male   Sentenced Non-ATSI     101
##  9 2005-03-01 NSW   Female Remanded  ATSI          51
## 10 2005-03-01 NSW   Female Remanded  Non-ATSI     131
## # ... with 3,062 more rows

prison <- prison %>%
  mutate(Quarter = yearquarter(Date)) %>%
  select(-Date) %>%
  as_tsibble(key = c(State, Gender, Legal, Indigenous),
             index = Quarter)

prison

## # A tsibble: 3,072 x 6 [1Q]
## # Key:       State, Gender, Legal, Indigenous [64]
##    State Gender Legal    Indigenous Count Quarter
##    <chr> <chr>  <chr>    <chr>      <dbl>   <qtr>
##  1 ACT   Female Remanded ATSI           0 2005 Q1
##  2 ACT   Female Remanded ATSI           1 2005 Q2
##  3 ACT   Female Remanded ATSI           0 2005 Q3
##  4 ACT   Female Remanded ATSI           0 2005 Q4
##  5 ACT   Female Remanded ATSI           1 2006 Q1
##  6 ACT   Female Remanded ATSI           1 2006 Q2
##  7 ACT   Female Remanded ATSI           1 2006 Q3
##  8 ACT   Female Remanded ATSI           0 2006 Q4
##  9 ACT   Female Remanded ATSI           0 2007 Q1
## 10 ACT   Female Remanded ATSI           1 2007 Q2
## # ... with 3,062 more rows

Time plots

Ansett dataframe

ansett <- ansett
ansett

## # A tsibble: 7,407 x 4 [1W]
## # Key:       Airports, Class [30]
##        Week Airports Class    Passengers
##      <week> <chr>    <chr>         <dbl>
##  1 1989 W28 ADL-PER  Business        193
##  2 1989 W29 ADL-PER  Business        254
##  3 1989 W30 ADL-PER  Business        185
##  4 1989 W31 ADL-PER  Business        254
##  5 1989 W32 ADL-PER  Business        191
##  6 1989 W33 ADL-PER  Business        136
##  7 1989 W34 ADL-PER  Business          0
##  8 1989 W35 ADL-PER  Business          0
##  9 1989 W36 ADL-PER  Business          0
## 10 1989 W37 ADL-PER  Business          0
## # ... with 7,397 more rows

ansett %>%
  filter(Airports == "MEL-SYD", Class == "Economy") %>%
  mutate(Passengers = Passengers / 1000) -> melsyd_economy
melsyd_economy

## # A tsibble: 282 x 4 [1W]
## # Key:       Airports, Class [1]
##        Week Airports Class   Passengers
##      <week> <chr>    <chr>        <dbl>
##  1 1987 W26 MEL-SYD  Economy       20.2
##  2 1987 W27 MEL-SYD  Economy       20.2
##  3 1987 W28 MEL-SYD  Economy       20.0
##  4 1987 W29 MEL-SYD  Economy       21.0
##  5 1987 W30 MEL-SYD  Economy       20.5
##  6 1987 W31 MEL-SYD  Economy       20.8
##  7 1987 W32 MEL-SYD  Economy       21.1
##  8 1987 W33 MEL-SYD  Economy       20.7
##  9 1987 W34 MEL-SYD  Economy       22.1
## 10 1987 W35 MEL-SYD  Economy       20.8
## # ... with 272 more rows
…
holidays <- tourism %>%
  filter(Purpose == "Holiday") %>%
  group_by(State) %>%
  summarise(Trips = sum(Trips))
holidays

## # A tsibble: 640 x 3 [1Q]
## # Key:       State [8]
##    State Quarter Trips
##    <chr>   <qtr> <dbl>
##  1 ACT   1998 Q1  196.
##  2 ACT   1998 Q2  127.
##  3 ACT   1998 Q3  111.
##  4 ACT   1998 Q4  170.
##  5 ACT   1999 Q1  108.
##  6 ACT   1999 Q2  125.
##  7 ACT   1999 Q3  178.
##  8 ACT   1999 Q4  218.
##  9 ACT   2000 Q1  158.
## 10 ACT   2000 Q2  155.
## # ... with 630 more rows
…
Lag plots

aus_production

## # A tsibble: 218 x 7 [1Q]
##    Quarter  Beer Tobacco Bricks Cement Electricity   Gas
##      <qtr> <dbl>   <dbl>  <dbl>  <dbl>       <dbl> <dbl>
##  1 1956 Q1   284    5225    189    465        3923     5
##  2 1956 Q2   213    5178    204    532        4436     6
##  3 1956 Q3   227    5297    208    561        4806     7
##  4 1956 Q4   308    5681    197    570        4418     6
##  5 1957 Q1   262    5577    187    529        4339     5
##  6 1957 Q2   228    5651    214    604        4811     7
##  7 1957 Q3   236    5317    227    603        5259     7
##  8 1957 Q4   320    6152    222    582        4735     6
##  9 1958 Q1   272    5758    199    554        4608     5
## 10 1958 Q2   233    5641    229    620        5196     7
## # ... with 208 more rows
…
Exercises

Use the help function to explore what the series gafa_stock, PBS, vic_elec and pelt represent.

use autoplot() to find what days corresponded to the peak closing price for each of the four stocks in gafa_stock

What is the time interval of each series

gafa_stock

Daily data. Except week-ends.

gafa_stock

## # A tsibble: 5,032 x 8 [!]
## # Key:       Symbol [4]
##    Symbol Date        Open  High   Low Close Adj_Close    Volume
##    <chr>  <date>     <dbl> <dbl> <dbl> <dbl>     <dbl>     <dbl>
##  1 AAPL   2014-01-02  79.4  79.6  78.9  79.0      67.0  58671200
##  2 AAPL   2014-01-03  79.0  79.1  77.2  77.3      65.5  98116900
##  3 AAPL   2014-01-06  76.8  78.1  76.2  77.7      65.9 103152700
##  4 AAPL   2014-01-07  77.8  78.0  76.8  77.1      65.4  79302300
##  5 AAPL   2014-01-08  77.0  77.9  77.0  77.6      65.8  64632400
##  6 AAPL   2014-01-09  78.1  78.1  76.5  76.6      65.0  69787200
##  7 AAPL   2014-01-10  77.1  77.3  75.9  76.1      64.5  76244000
##  8 AAPL   2014-01-13  75.7  77.5  75.7  76.5      64.9  94623200
##  9 AAPL   2014-01-14  76.9  78.1  76.8  78.1      66.1  83140400
## 10 AAPL   2014-01-15  79.1  80.0  78.8  79.6      67.5  97909700
## # ... with 5,022 more rows
…
Inefficient solution

for (company in factor(gafa_stock$Symbol) %>% levels()) {
  gafa_stock %>%
    filter(Symbol == company) %>%
    arrange(desc(Close)) %>%
    print()
}

## Warning: Current temporal ordering may yield unexpected results.
## i Suggest to sort by `Symbol`, `Date` first.

## # A tsibble: 1,258 x 8 [!]
## # Key:       Symbol [1]
##    Symbol Date        Open  High   Low Close Adj_Close   Volume
##    <chr>  <date>     <dbl> <dbl> <dbl> <dbl>     <dbl>    <dbl>
##  1 AAPL   2018-10-03  230.  233.  230.  232.      230. 28654800
##  2 AAPL   2018-10-02  227.  230   227.  229.      228. 24788200
##  3 AAPL   2018-09-04  228.  229.  227.  228.      227. 27390100
##  4 AAPL   2018-10-04  231.  232.  227.  228.      226. 32042000
##  5 AAPL   2018-08-31  227.  229.  226   228.      226. 43340100
##  6 AAPL   2018-10-01  228.  229.  226.  227.      226. 23600800
##  7 AAPL   2018-09-05  229.  230.  225.  227.      225. 33333000
##  8 AAPL   2018-10-09  224.  227.  222.  227.      225. 26891000
##  9 AAPL   2018-09-13  224.  228.  223.  226.      225. 41706400
## 10 AAPL   2018-09-28  225.  226.  224.  226.      224. 22929400
## # ... with 1,248 more rows

## Warning: Current temporal ordering may yield unexpected results.
## i Suggest to sort by `Symbol`, `Date` first.

## # A tsibble: 1,258 x 8 [!]
## # Key:       Symbol [1]
##    Symbol Date        Open  High   Low Close Adj_Close  Volume
##    <chr>  <date>     <dbl> <dbl> <dbl> <dbl>     <dbl>   <dbl>
##  1 AMZN   2018-09-04 2026. 2050. 2013  2040.     2040. 5721100
##  2 AMZN   2018-09-27 1993. 2016. 1989. 2013.     2013. 4329400
##  3 AMZN   2018-08-31 2007  2022. 2005. 2013.     2013. 4204400
##  4 AMZN   2018-10-01 2022. 2033. 2004. 2004.     2004. 3460500
##  5 AMZN   2018-09-28 2004. 2027. 1996. 2003      2003  4085100
##  6 AMZN   2018-08-30 1997. 2026. 1987. 2002.     2002. 7277300
##  7 AMZN   2018-08-29 1953. 1999. 1949. 1998.     1998. 6531800
##  8 AMZN   2018-09-05 2038. 2040. 1990. 1995.     1995. 8220600
##  9 AMZN   2018-09-12 1994  2000  1962. 1990      1990  4414000
## 10 AMZN   2018-09-13 2000  2009. 1982. 1990.     1990. 3621500
## # ... with 1,248 more rows

## Warning: Current temporal ordering may yield unexpected results.
## i Suggest to sort by `Symbol`, `Date` first.

## # A tsibble: 1,258 x 8 [!]
## # Key:       Symbol [1]
##    Symbol Date        Open  High   Low Close Adj_Close   Volume
##    <chr>  <date>     <dbl> <dbl> <dbl> <dbl>     <dbl>    <dbl>
##  1 FB     2018-07-25  216.  219.  214.  218.      218. 58954200
##  2 FB     2018-07-24  215.  216.  213.  215.      215. 28468700
##  3 FB     2018-07-23  211.  212.  209.  211.      211. 16732000
##  4 FB     2018-07-17  205.  210.  205.  210.      210. 15349900
##  5 FB     2018-07-20  209.  212.  208.  210.      210. 16163900
##  6 FB     2018-07-18  210.  211.  208.  209.      209. 15334900
##  7 FB     2018-07-19  209.  210.  208.  208.      208. 11350400
##  8 FB     2018-07-13  208.  208.  206.  207.      207. 11486800
##  9 FB     2018-07-16  208.  209.  207.  207.      207. 11078200
## 10 FB     2018-07-12  203.  207.  203.  207.      207. 15454700
## # ... with 1,248 more rows

## Warning: Current temporal ordering may yield unexpected results.
## i Suggest to sort by `Symbol`, `Date` first.

## # A tsibble: 1,258 x 8 [!]
## # Key:       Symbol [1]
##    Symbol Date        Open  High   Low Close Adj_Close  Volume
##    <chr>  <date>     <dbl> <dbl> <dbl> <dbl>     <dbl>   <dbl>
##  1 GOOG   2018-07-26 1251  1270. 1249. 1268.     1268. 2405600
##  2 GOOG   2018-07-25 1239. 1266. 1239. 1264.     1264. 2127800
##  3 GOOG   2018-08-29 1237. 1251. 1236. 1249.     1249. 1298900
##  4 GOOG   2018-08-09 1250. 1256. 1246. 1249.     1249.  841800
##  5 GOOG   2018-07-24 1263. 1266  1236. 1248.     1248. 3318200
##  6 GOOG   2018-08-08 1240. 1256. 1238. 1246.     1246. 1370300
##  7 GOOG   2018-08-07 1237  1251. 1236. 1242.     1242. 1494000
##  8 GOOG   2018-08-14 1235. 1246. 1225. 1242.     1242. 1348100
##  9 GOOG   2018-08-27 1228. 1243. 1226. 1242.     1242. 1156300
## 10 GOOG   2018-08-30 1244. 1254. 1233. 1239.     1239. 1331400
## # ... with 1,248 more rows
…
## Rows: 100 Columns: 4

## -- Column specification --------------------------------------------------------
## Delimiter: ","
## dbl  (3): Sales, AdBudget, GDP
## date (1): Quarter

## 
## i Use `spec()` to retrieve the full column specification for this data.
## i Specify the column types or set `show_col_types = FALSE` to quiet this message.

tute1

## # A tsibble: 100 x 4 [3M]
##     Quarter Sales AdBudget   GDP
##       <mth> <dbl>    <dbl> <dbl>
##  1 1981 Mar 1020.     659.  252.
##  2 1981 Jun  889.     589   291.
##  3 1981 Sep  795      512.  291.
##  4 1981 Dec 1004.     614.  292.
##  5 1982 Mar 1058.     647.  279.
##  6 1982 Jun  944.     602   254 
##  7 1982 Sep  778.     531.  296.
##  8 1982 Dec  932.     608.  272.
##  9 1983 Mar  996.     638.  260.
## 10 1983 Jun  908.     582.  280.
## # ... with 90 more rows
…
Tourism.xlsx

tourism_xl <- readxl::read_excel("tourism.xlsx") %>%
  mutate(Quarter = yearquarter(Quarter)) %>%
  as_tsibble(index = Quarter, key = c("Region", "State", "Purpose"))

tourism_xl %>%
  group_by(Region, Purpose) %>%
  summarise(Trips = mean(Trips)) %>%
  arrange(desc(Trips))

## Warning: Current temporal ordering may yield unexpected results.
## i Suggest to sort by `Region`, `Purpose`, `Quarter` first.

## # A tsibble: 24,320 x 4 [1Q]
## # Key:       Region, Purpose [304]
## # Groups:    Region [76]
##    Region          Purpose  Quarter Trips
##    <chr>           <chr>      <qtr> <dbl>
##  1 Melbourne       Visiting 2017 Q4  985.
##  2 Sydney          Business 2001 Q4  948.
##  3 Sydney          Visiting 2016 Q4  921.
##  4 Sydney          Visiting 2017 Q4  920.
##  5 Sydney          Visiting 2017 Q1  916.
##  6 South Coast     Holiday  1998 Q1  915.
##  7 North Coast NSW Holiday  2016 Q1  906.
##  8 Sydney          Business 2017 Q3  892.
##  9 Sydney          Business 2017 Q2  884.
## 10 Sydney          Visiting 2013 Q4  882.
## # ... with 24,310 more rows

tourism_xl %>%
  group_by(State) %>%
  summarise(Trips = sum(Trips))

## # A tsibble: 640 x 3 [1Q]
## # Key:       State [8]
##    State Quarter Trips
##    <chr>   <qtr> <dbl>
##  1 ACT   1998 Q1  551.
##  2 ACT   1998 Q2  416.
##  3 ACT   1998 Q3  436.
##  4 ACT   1998 Q4  450.
##  5 ACT   1999 Q1  379.
##  6 ACT   1999 Q2  558.
##  7 ACT   1999 Q3  449.
##  8 ACT   1999 Q4  595.
##  9 ACT   2000 Q1  600.
## 10 ACT   2000 Q2  557.
## # ... with 630 more rows

Trivial. I have done that too much already.

aus_arrivals

aus_arrivals

## # A tsibble: 508 x 3 [1Q]
## # Key:       Origin [4]
##    Quarter Origin Arrivals
##      <qtr> <chr>     <int>
##  1 1981 Q1 Japan     14763
##  2 1981 Q2 Japan      9321
##  3 1981 Q3 Japan     10166
##  4 1981 Q4 Japan     19509
##  5 1982 Q1 Japan     17117
##  6 1982 Q2 Japan     10617
##  7 1982 Q3 Japan     11737
##  8 1982 Q4 Japan     20961
##  9 1983 Q1 Japan     20671
## 10 1983 Q2 Japan     12235
## # ... with 498 more rows
…
